EESchema Schematic File Version 4
LIBS:LINCE_30A-cache
EELAYER 30 0
EELAYER END
$Descr A4 11693 8268
encoding utf-8
Sheet 2 2
Title "ESC KINETIS"
Date "2019-07-04"
Rev "0.0.1"
Comp ""
Comment1 ""
Comment2 ""
Comment3 ""
Comment4 ""
$EndDescr
$Comp
L Transistor_FET:PSMN5R2-60YL Q?
U 1 1 5D43B89C
P 7600 1950
AR Path="/5D0EAC49/5D43B89C" Ref="Q?"  Part="1" 
AR Path="/5D430721/5D43B89C" Ref="Q5"  Part="1" 
F 0 "Q5" H 7806 1996 50  0000 L CNN
F 1 "PSMN2R4-30MLD" H 7806 1905 50  0000 L CNN
F 2 "Package_TO_SOT_SMD:LFPAK33" H 7750 1950 50  0001 C CNN
F 3 "https://assets.nexperia.com/documents/data-sheet/PSMN2R4-30MLD.pdf" H 7600 1950 50  0001 C CNN
F 4 "PSMN2R4-30MLD" H 7600 1950 50  0001 C CNN "MPN"
	1    7600 1950
	0    1    1    0   
$EndComp
$Comp
L Transistor_FET:PSMN5R2-60YL Q?
U 1 1 5D43B8A4
P 7700 3450
AR Path="/5D0EAC49/5D43B8A4" Ref="Q?"  Part="1" 
AR Path="/5D430721/5D43B8A4" Ref="Q6"  Part="1" 
F 0 "Q6" H 7906 3496 50  0000 L CNN
F 1 "PSMN2R4-30MLD" H 7906 3405 50  0000 L CNN
F 2 "Package_TO_SOT_SMD:LFPAK33" H 7850 3450 50  0001 C CNN
F 3 "https://assets.nexperia.com/documents/data-sheet/PSMN2R4-30MLD.pdf" H 7700 3450 50  0001 C CNN
F 4 "PSMN2R4-30MLD" H 7700 3450 50  0001 C CNN "MPN"
	1    7700 3450
	0    -1   -1   0   
$EndComp
$Comp
L Transistor_FET:PSMN5R2-60YL Q?
U 1 1 5D43B8AC
P 5600 2050
AR Path="/5D0EAC49/5D43B8AC" Ref="Q?"  Part="1" 
AR Path="/5D430721/5D43B8AC" Ref="Q3"  Part="1" 
F 0 "Q3" H 5806 2096 50  0000 L CNN
F 1 "PSMN2R4-30MLD" H 5806 2005 50  0000 L CNN
F 2 "Package_TO_SOT_SMD:LFPAK33" H 5750 2050 50  0001 C CNN
F 3 "https://assets.nexperia.com/documents/data-sheet/PSMN2R4-30MLD.pdf" H 5600 2050 50  0001 C CNN
F 4 "PSMN2R4-30MLD" H 5600 2050 50  0001 C CNN "MPN"
	1    5600 2050
	0    1    1    0   
$EndComp
$Comp
L Transistor_FET:PSMN5R2-60YL Q?
U 1 1 5D43B8B4
P 5700 3450
AR Path="/5D0EAC49/5D43B8B4" Ref="Q?"  Part="1" 
AR Path="/5D430721/5D43B8B4" Ref="Q4"  Part="1" 
F 0 "Q4" H 5906 3496 50  0000 L CNN
F 1 "PSMN2R4-30MLD" H 5906 3405 50  0000 L CNN
F 2 "Package_TO_SOT_SMD:LFPAK33" H 5850 3450 50  0001 C CNN
F 3 "https://assets.nexperia.com/documents/data-sheet/PSMN2R4-30MLD.pdf" H 5700 3450 50  0001 C CNN
F 4 "PSMN2R4-30MLD" H 5700 3450 50  0001 C CNN "MPN"
	1    5700 3450
	0    -1   -1   0   
$EndComp
$Comp
L Transistor_FET:PSMN5R2-60YL Q?
U 1 1 5D43B8BC
P 3600 3450
AR Path="/5D0EAC49/5D43B8BC" Ref="Q?"  Part="1" 
AR Path="/5D430721/5D43B8BC" Ref="Q2"  Part="1" 
F 0 "Q2" H 3806 3496 50  0000 L CNN
F 1 "PSMN2R4-30MLD" H 3806 3405 50  0000 L CNN
F 2 "Package_TO_SOT_SMD:LFPAK33" H 3750 3450 50  0001 C CNN
F 3 "https://assets.nexperia.com/documents/data-sheet/PSMN2R4-30MLD.pdf" H 3600 3450 50  0001 C CNN
F 4 "PSMN2R4-30MLD" H 3600 3450 50  0001 C CNN "MPN"
	1    3600 3450
	0    -1   -1   0   
$EndComp
$Comp
L Transistor_FET:PSMN5R2-60YL Q?
U 1 1 5D43B8C4
P 3450 2100
AR Path="/5D0EAC49/5D43B8C4" Ref="Q?"  Part="1" 
AR Path="/5D430721/5D43B8C4" Ref="Q1"  Part="1" 
F 0 "Q1" H 3656 2146 50  0000 L CNN
F 1 "PSMN2R4-30MLD" H 3656 2055 50  0000 L CNN
F 2 "Package_TO_SOT_SMD:LFPAK33" H 3600 2100 50  0001 C CNN
F 3 "https://assets.nexperia.com/documents/data-sheet/PSMN2R4-30MLD.pdf" H 3450 2100 50  0001 C CNN
F 4 "PSMN2R4-30MLD" H 3450 2100 50  0001 C CNN "MPN"
	1    3450 2100
	0    1    1    0   
$EndComp
Text Notes 3650 4100 0    50   ~ 0
10R-50R
Text Notes 7800 4100 0    50   ~ 0
10R-50R
Wire Wire Line
	4200 3950 4000 3950
Wire Wire Line
	8350 3950 8100 3950
Wire Wire Line
	7800 3950 7700 3950
Wire Wire Line
	7700 3950 7700 3650
Wire Wire Line
	6300 3950 6100 3950
Wire Wire Line
	5700 3650 5700 3950
Wire Wire Line
	5700 3950 5800 3950
Wire Wire Line
	3700 3950 3600 3950
Wire Wire Line
	3600 3950 3600 3650
Wire Wire Line
	4200 1600 3850 1600
Wire Wire Line
	3550 1600 3450 1600
Wire Wire Line
	3450 1600 3450 1900
Wire Wire Line
	5700 1600 5600 1600
Wire Wire Line
	5600 1600 5600 1850
Wire Wire Line
	6300 1600 6000 1600
Wire Wire Line
	8050 1600 8350 1600
Wire Wire Line
	7750 1600 7600 1600
Wire Wire Line
	7600 1600 7600 1750
Text Label 7000 2750 2    50   ~ 0
C
Text Label 2750 2750 2    50   ~ 0
A
Text Label 5000 2750 2    50   ~ 0
B
Wire Wire Line
	5900 3350 6650 3350
Wire Wire Line
	6650 3350 6650 4400
Wire Wire Line
	7900 3350 8650 3350
Wire Wire Line
	8650 3350 8650 4400
Wire Wire Line
	8650 4400 6650 4400
Connection ~ 6650 4400
Wire Wire Line
	4550 4400 4550 3350
Wire Wire Line
	4550 3350 3800 3350
Wire Wire Line
	3400 3350 3000 3350
Wire Wire Line
	3000 3350 3000 2750
Wire Wire Line
	3000 2200 3250 2200
Wire Wire Line
	5500 3350 5200 3350
Wire Wire Line
	5200 3350 5200 2750
Wire Wire Line
	5200 2150 5400 2150
Wire Wire Line
	7500 3350 7150 3350
Wire Wire Line
	7150 3350 7150 2750
Wire Wire Line
	7150 2050 7400 2050
Wire Wire Line
	7000 2750 7150 2750
Connection ~ 7150 2750
Wire Wire Line
	7150 2750 7150 2050
Wire Wire Line
	5000 2750 5200 2750
Connection ~ 5200 2750
Wire Wire Line
	5200 2750 5200 2150
Wire Wire Line
	2750 2750 3000 2750
Connection ~ 3000 2750
Wire Wire Line
	3000 2750 3000 2200
Wire Wire Line
	6250 2150 5800 2150
Wire Wire Line
	4100 2200 3650 2200
Wire Wire Line
	8250 2050 7800 2050
$Comp
L pspice:C C16
U 1 1 5D4B5143
P 4000 6150
F 0 "C16" H 4178 6196 50  0000 L CNN
F 1 "22uF" H 4178 6105 50  0000 L CNN
F 2 "Capacitor_SMD:C_1206_3216Metric" H 4000 6150 50  0001 C CNN
F 3 "" H 4000 6150 50  0001 C CNN
F 4 "GRM31CR61E226KE15L" H 4000 6150 50  0001 C CNN "MPN"
	1    4000 6150
	1    0    0    -1  
$EndComp
Wire Wire Line
	1900 5900 1900 5750
Wire Wire Line
	1900 5750 2600 5750
Wire Wire Line
	2600 5750 2600 5900
Connection ~ 1900 5750
Wire Wire Line
	2600 5750 3300 5750
Wire Wire Line
	3300 5750 3300 5900
Connection ~ 2600 5750
Wire Wire Line
	3300 5750 4000 5750
Wire Wire Line
	4000 5750 4000 5900
Connection ~ 3300 5750
Wire Wire Line
	4000 5750 4700 5750
Wire Wire Line
	4700 5750 4700 5900
Connection ~ 4000 5750
Wire Wire Line
	4700 5750 5400 5750
Wire Wire Line
	5400 5750 5400 5900
Connection ~ 4700 5750
Wire Wire Line
	1900 6550 2600 6550
Wire Wire Line
	2600 6550 2600 6400
Wire Wire Line
	1900 6550 1900 6400
Wire Wire Line
	2600 6550 3300 6550
Wire Wire Line
	3300 6550 3300 6400
Connection ~ 2600 6550
Wire Wire Line
	3300 6550 4000 6550
Wire Wire Line
	4000 6550 4000 6400
Connection ~ 3300 6550
Wire Wire Line
	4000 6550 4700 6550
Wire Wire Line
	4700 6550 4700 6400
Connection ~ 4000 6550
Wire Wire Line
	4700 6550 5400 6550
Wire Wire Line
	5400 6550 5400 6400
Connection ~ 4700 6550
Connection ~ 1900 6550
Text GLabel 8350 3950 2    50   BiDi ~ 0
GLC
Text GLabel 6300 3950 2    50   BiDi ~ 0
GLB
Text GLabel 4200 3950 2    50   BiDi ~ 0
GLA
Text GLabel 6300 1600 2    50   BiDi ~ 0
GHB
Text GLabel 4200 1600 2    50   BiDi ~ 0
GHA
Text GLabel 8350 1600 2    50   BiDi ~ 0
GHC
Text GLabel 4400 4400 0    50   BiDi ~ 0
GND
Wire Wire Line
	4400 4400 4550 4400
Connection ~ 4550 4400
Text GLabel 1650 5750 0    50   BiDi ~ 0
PWR_IN
Wire Wire Line
	1650 5750 1900 5750
Text GLabel 4100 2200 2    50   BiDi ~ 0
PWR_IN
Text GLabel 6250 2150 2    50   BiDi ~ 0
PWR_IN
Text GLabel 8250 2050 2    50   BiDi ~ 0
PWR_IN
Text GLabel 1650 6550 0    50   BiDi ~ 0
GND
Wire Wire Line
	1650 6550 1900 6550
Wire Wire Line
	4550 4400 6650 4400
$Comp
L pspice:C C17
U 1 1 5D3F2CF0
P 4700 6150
F 0 "C17" H 4878 6196 50  0000 L CNN
F 1 "22uF" H 4878 6105 50  0000 L CNN
F 2 "Capacitor_SMD:C_1206_3216Metric" H 4700 6150 50  0001 C CNN
F 3 "" H 4700 6150 50  0001 C CNN
F 4 "GRM31CR61E226KE15L" H 4700 6150 50  0001 C CNN "MPN"
	1    4700 6150
	1    0    0    -1  
$EndComp
$Comp
L pspice:C C18
U 1 1 5D3F2D3A
P 5400 6150
F 0 "C18" H 5578 6196 50  0000 L CNN
F 1 "22uF" H 5578 6105 50  0000 L CNN
F 2 "Capacitor_SMD:C_1206_3216Metric" H 5400 6150 50  0001 C CNN
F 3 "" H 5400 6150 50  0001 C CNN
F 4 "GRM31CR61E226KE15L" H 5400 6150 50  0001 C CNN "MPN"
	1    5400 6150
	1    0    0    -1  
$EndComp
$Comp
L pspice:C C15
U 1 1 5D3F2D86
P 3300 6150
F 0 "C15" H 3478 6196 50  0000 L CNN
F 1 "22uF" H 3478 6105 50  0000 L CNN
F 2 "Capacitor_SMD:C_1206_3216Metric" H 3300 6150 50  0001 C CNN
F 3 "" H 3300 6150 50  0001 C CNN
F 4 "GRM31CR61E226KE15L" H 3300 6150 50  0001 C CNN "MPN"
	1    3300 6150
	1    0    0    -1  
$EndComp
$Comp
L pspice:C C5
U 1 1 5D3F2DD4
P 2600 6150
F 0 "C5" H 2778 6196 50  0000 L CNN
F 1 "22uF" H 2778 6105 50  0000 L CNN
F 2 "Capacitor_SMD:C_1206_3216Metric" H 2600 6150 50  0001 C CNN
F 3 "" H 2600 6150 50  0001 C CNN
F 4 "GRM31CR61E226KE15L" H 2600 6150 50  0001 C CNN "MPN"
	1    2600 6150
	1    0    0    -1  
$EndComp
$Comp
L pspice:C C4
U 1 1 5D3F2E20
P 1900 6150
F 0 "C4" H 2078 6196 50  0000 L CNN
F 1 "22uF" H 2078 6105 50  0000 L CNN
F 2 "Capacitor_SMD:C_1206_3216Metric" H 1900 6150 50  0001 C CNN
F 3 "" H 1900 6150 50  0001 C CNN
F 4 "GRM31CR61E226KE15L" H 1900 6150 50  0001 C CNN "MPN"
	1    1900 6150
	1    0    0    -1  
$EndComp
$Comp
L Device:R R?
U 1 1 5D43B8D2
P 7950 3950
AR Path="/5D0EAC49/5D43B8D2" Ref="R?"  Part="1" 
AR Path="/5D430721/5D43B8D2" Ref="R18"  Part="1" 
F 0 "R18" V 7743 3950 50  0000 C CNN
F 1 "20R" V 7834 3950 50  0000 C CNN
F 2 "Resistor_SMD:R_0402_1005Metric" V 7880 3950 50  0001 C CNN
F 3 "~" H 7950 3950 50  0001 C CNN
	1    7950 3950
	0    1    1    0   
$EndComp
$Comp
L Device:R R?
U 1 1 5D40F49E
P 5950 3950
AR Path="/5D0EAC49/5D40F49E" Ref="R?"  Part="1" 
AR Path="/5D430721/5D40F49E" Ref="R16"  Part="1" 
F 0 "R16" V 5743 3950 50  0000 C CNN
F 1 "20R" V 5834 3950 50  0000 C CNN
F 2 "Resistor_SMD:R_0402_1005Metric" V 5880 3950 50  0001 C CNN
F 3 "~" H 5950 3950 50  0001 C CNN
	1    5950 3950
	0    1    1    0   
$EndComp
$Comp
L Device:R R?
U 1 1 5D40F51C
P 3850 3950
AR Path="/5D0EAC49/5D40F51C" Ref="R?"  Part="1" 
AR Path="/5D430721/5D40F51C" Ref="R13"  Part="1" 
F 0 "R13" V 3643 3950 50  0000 C CNN
F 1 "20R" V 3734 3950 50  0000 C CNN
F 2 "Resistor_SMD:R_0402_1005Metric" V 3780 3950 50  0001 C CNN
F 3 "~" H 3850 3950 50  0001 C CNN
	1    3850 3950
	0    1    1    0   
$EndComp
$Comp
L Device:R R?
U 1 1 5D40F622
P 3700 1600
AR Path="/5D0EAC49/5D40F622" Ref="R?"  Part="1" 
AR Path="/5D430721/5D40F622" Ref="R1"  Part="1" 
F 0 "R1" V 3493 1600 50  0000 C CNN
F 1 "20R" V 3584 1600 50  0000 C CNN
F 2 "Resistor_SMD:R_0402_1005Metric" V 3630 1600 50  0001 C CNN
F 3 "~" H 3700 1600 50  0001 C CNN
	1    3700 1600
	0    1    1    0   
$EndComp
$Comp
L Device:R R?
U 1 1 5D40F7A0
P 5850 1600
AR Path="/5D0EAC49/5D40F7A0" Ref="R?"  Part="1" 
AR Path="/5D430721/5D40F7A0" Ref="R15"  Part="1" 
F 0 "R15" V 5643 1600 50  0000 C CNN
F 1 "20R" V 5734 1600 50  0000 C CNN
F 2 "Resistor_SMD:R_0402_1005Metric" V 5780 1600 50  0001 C CNN
F 3 "~" H 5850 1600 50  0001 C CNN
	1    5850 1600
	0    1    1    0   
$EndComp
$Comp
L Device:R R?
U 1 1 5D40F8C5
P 7900 1600
AR Path="/5D0EAC49/5D40F8C5" Ref="R?"  Part="1" 
AR Path="/5D430721/5D40F8C5" Ref="R17"  Part="1" 
F 0 "R17" V 7693 1600 50  0000 C CNN
F 1 "20R" V 7784 1600 50  0000 C CNN
F 2 "Resistor_SMD:R_0402_1005Metric" V 7830 1600 50  0001 C CNN
F 3 "~" H 7900 1600 50  0001 C CNN
	1    7900 1600
	0    1    1    0   
$EndComp
$Comp
L Mechanical:MountingHole_Pad J?
U 1 1 5D2BD2DF
P 10300 1150
AR Path="/5D2BD2DF" Ref="J?"  Part="1" 
AR Path="/5D430721/5D2BD2DF" Ref="J8"  Part="1" 
F 0 "J8" V 10200 1050 50  0000 L CNN
F 1 "PAD_A" V 10450 1150 50  0000 L CNN
F 2 "HexagonRobotics:MOTOR_PAD" H 10300 1150 50  0001 C CNN
F 3 "~" H 10300 1150 50  0001 C CNN
	1    10300 1150
	0    1    1    0   
$EndComp
Text Label 9850 1150 2    50   ~ 0
A
Text Label 9850 1400 2    50   ~ 0
B
Text Label 9850 1650 2    50   ~ 0
C
Wire Wire Line
	10200 1150 9850 1150
Wire Wire Line
	9850 1400 10200 1400
Wire Wire Line
	10200 1650 9850 1650
$Comp
L Mechanical:MountingHole_Pad J?
U 1 1 5D2BD2EC
P 10300 1400
AR Path="/5D2BD2EC" Ref="J?"  Part="1" 
AR Path="/5D430721/5D2BD2EC" Ref="J12"  Part="1" 
F 0 "J12" V 10200 1300 50  0000 L CNN
F 1 "PAD_B" V 10450 1400 50  0000 L CNN
F 2 "HexagonRobotics:MOTOR_PAD" H 10300 1400 50  0001 C CNN
F 3 "~" H 10300 1400 50  0001 C CNN
	1    10300 1400
	0    1    1    0   
$EndComp
$Comp
L Mechanical:MountingHole_Pad J?
U 1 1 5D2BD2F3
P 10300 1650
AR Path="/5D2BD2F3" Ref="J?"  Part="1" 
AR Path="/5D430721/5D2BD2F3" Ref="J13"  Part="1" 
F 0 "J13" V 10200 1550 50  0000 L CNN
F 1 "PAD_C" V 10450 1650 50  0000 L CNN
F 2 "HexagonRobotics:MOTOR_PAD" H 10300 1650 50  0001 C CNN
F 3 "~" H 10300 1650 50  0001 C CNN
	1    10300 1650
	0    1    1    0   
$EndComp
$Comp
L Amplifier_Operational:LMV321 U5
U 1 1 5D4A69FF
P 8850 5550
F 0 "U5" H 9194 5596 50  0000 L CNN
F 1 "LMV321" H 9194 5505 50  0000 L CNN
F 2 "Package_TO_SOT_SMD:SOT-23-5" H 8850 5550 50  0001 L CNN
F 3 "https://datasheet.lcsc.com/szlcsc/Texas-Instruments-TI-LMV321IDBVR_C7972.pdf" H 8850 5550 50  0001 C CNN
F 4 "LMV321IDBVR" H 8850 5550 50  0001 C CNN "MPN"
	1    8850 5550
	1    0    0    -1  
$EndComp
Text Label 9150 4950 0    50   ~ 0
3V3
$Comp
L Device:C C?
U 1 1 5D4ABEE7
P 9800 5700
AR Path="/5D4ABEE7" Ref="C?"  Part="1" 
AR Path="/5D430721/5D4ABEE7" Ref="C10"  Part="1" 
F 0 "C10" H 9915 5746 50  0000 L CNN
F 1 "0.1uF" H 9915 5655 50  0000 L CNN
F 2 "Capacitor_SMD:C_0402_1005Metric" H 9838 5550 50  0001 C CNN
F 3 "~" H 9800 5700 50  0001 C CNN
F 4 "GRM155R71A104KA01D" H 9800 5700 50  0001 C CNN "MPN"
	1    9800 5700
	1    0    0    -1  
$EndComp
$Comp
L Device:R R?
U 1 1 5D4AF0F7
P 9350 6350
AR Path="/5D4AF0F7" Ref="R?"  Part="1" 
AR Path="/5D430721/5D4AF0F7" Ref="R21"  Part="1" 
F 0 "R21" H 9420 6396 50  0000 L CNN
F 1 "50K" H 9420 6305 50  0000 L CNN
F 2 "Resistor_SMD:R_0402_1005Metric" V 9280 6350 50  0001 C CNN
F 3 "~" H 9350 6350 50  0001 C CNN
	1    9350 6350
	0    -1   -1   0   
$EndComp
Text Notes 9950 4950 0    50   ~ 0
CURRENT SENSE
Text GLabel 9800 6100 3    50   BiDi ~ 0
GND
Text GLabel 7750 6350 0    50   BiDi ~ 0
GND
Text GLabel 8750 5950 3    50   BiDi ~ 0
GND
Wire Wire Line
	8750 5950 8750 5850
Wire Wire Line
	8550 5650 8350 5650
Wire Wire Line
	8350 5650 8350 5900
Wire Wire Line
	8350 6300 8350 6350
Wire Wire Line
	8350 6350 8000 6350
Wire Wire Line
	8600 6350 8600 5900
Wire Wire Line
	8600 5900 8350 5900
Connection ~ 8350 5900
Wire Wire Line
	8350 5900 8350 6000
Wire Wire Line
	8600 6350 9200 6350
Wire Wire Line
	9150 5550 9550 5550
Wire Wire Line
	9550 5550 9550 6350
Wire Wire Line
	9550 6350 9500 6350
Wire Wire Line
	9800 6100 9800 5850
Wire Wire Line
	9800 5550 9550 5550
Connection ~ 9550 5550
Connection ~ 9800 5550
Wire Wire Line
	8750 4950 8750 5250
Wire Wire Line
	8750 4950 9150 4950
$Comp
L Device:R R19
U 1 1 5D4E01A8
P 8000 5900
F 0 "R19" H 8070 5946 50  0000 L CNN
F 1 "0.001" H 8070 5855 50  0000 L CNN
F 2 "Resistor_SMD:R_2512_6332Metric" V 7930 5900 50  0001 C CNN
F 3 "https://datasheet.lcsc.com/szlcsc/FORT-CUM2512-24FR001_C323764.pdf" H 8000 5900 50  0001 C CNN
F 4 "CUM2512-24FR001" H 8000 5900 50  0001 C CNN "MPN"
	1    8000 5900
	1    0    0    -1  
$EndComp
Text GLabel 7800 5450 0    50   BiDi ~ 0
PWR_IN
Wire Wire Line
	7800 5450 8000 5450
Wire Wire Line
	8000 5750 8000 5450
Connection ~ 8000 5450
Wire Wire Line
	8000 5450 8550 5450
Wire Wire Line
	8000 6050 8000 6350
Connection ~ 8000 6350
Wire Wire Line
	8000 6350 7750 6350
Text GLabel 10300 5550 2    50   Input ~ 0
SENSE
Wire Wire Line
	9800 5550 10300 5550
$Comp
L Device:R R?
U 1 1 5D4B138A
P 8350 6150
AR Path="/5D4B138A" Ref="R?"  Part="1" 
AR Path="/5D430721/5D4B138A" Ref="R20"  Part="1" 
F 0 "R20" H 8420 6196 50  0000 L CNN
F 1 "1K" H 8420 6105 50  0000 L CNN
F 2 "Resistor_SMD:R_0402_1005Metric" V 8280 6150 50  0001 C CNN
F 3 "~" H 8350 6150 50  0001 C CNN
	1    8350 6150
	1    0    0    -1  
$EndComp
$EndSCHEMATC
