(module MOTOR_PAD (layer F.Cu) (tedit 5D21DAAA)
  (fp_text reference REF** (at -0.08 2.3) (layer F.SilkS)
    (effects (font (size 1 1) (thickness 0.15)))
  )
  (fp_text value MOTOR_PAD (at 0.15 -2.28) (layer F.Fab)
    (effects (font (size 1 1) (thickness 0.15)))
  )
  (pad 1 smd rect (at 0 0) (size 3 3) (layers B.Cu B.Paste B.Mask))
  (pad 1 smd rect (at 0 0) (size 3 3) (layers F.Cu F.Paste F.Mask))
  (pad "" np_thru_hole circle (at -0.99 -0.29) (size 0.8 0.8) (drill 0.5) (layers *.Cu *.Mask))
  (pad "" np_thru_hole circle (at -0.005 -0.29) (size 0.8 0.8) (drill 0.5) (layers *.Cu *.Mask))
  (pad "" np_thru_hole circle (at 0.98 -0.29) (size 0.8 0.8) (drill 0.5) (layers *.Cu *.Mask))
  (pad "" np_thru_hole circle (at -0.015 0.75) (size 0.8 0.8) (drill 0.5) (layers *.Cu *.Mask))
  (pad "" np_thru_hole circle (at -1 0.75) (size 0.8 0.8) (drill 0.5) (layers *.Cu *.Mask))
  (pad "" np_thru_hole circle (at 0.97 0.75) (size 0.8 0.8) (drill 0.5) (layers *.Cu *.Mask))
)
