(module "SMD LED 3528 RGBA" (layer F.Cu) (tedit 5D1B2B63)
  (descr "3.2mm x 2.8mm PLCC4 LED, http://www.cree.com/led-components/media/documents/CLV1AFKB(874).pdf")
  (tags "LED Cree PLCC-4")
  (attr smd)
  (fp_text reference REF** (at 0 -2.65) (layer F.SilkS)
    (effects (font (size 1 1) (thickness 0.15)))
  )
  (fp_text value "SMD LED 3528 RGBA" (at 0 2.65) (layer F.Fab)
    (effects (font (size 1 1) (thickness 0.15)))
  )
  (fp_circle (center -0.15 -0.16) (end -1.27 -0.16) (layer F.Fab) (width 0.1))
  (fp_line (start 2.05 1.59) (end 2.05 -1.91) (layer F.CrtYd) (width 0.05))
  (fp_line (start 2.05 -1.91) (end -2.35 -1.91) (layer F.CrtYd) (width 0.05))
  (fp_line (start -2.35 -1.91) (end -2.35 1.59) (layer F.CrtYd) (width 0.05))
  (fp_line (start -2.35 1.59) (end 2.05 1.59) (layer F.CrtYd) (width 0.05))
  (fp_line (start 0.45 1.24) (end 1.45 0.24) (layer F.Fab) (width 0.1))
  (fp_line (start 1.45 1.24) (end 1.45 -1.56) (layer F.Fab) (width 0.1))
  (fp_line (start 1.45 -1.56) (end -1.75 -1.56) (layer F.Fab) (width 0.1))
  (fp_line (start -1.75 -1.56) (end -1.75 1.24) (layer F.Fab) (width 0.1))
  (fp_line (start -1.75 1.24) (end 1.45 1.24) (layer F.Fab) (width 0.1))
  (fp_line (start 1.8 0.54) (end 1.8 1.34) (layer F.SilkS) (width 0.12))
  (fp_line (start 1.8 1.34) (end -2.1 1.34) (layer F.SilkS) (width 0.12))
  (fp_line (start 1.8 -1.66) (end -2.1 -1.66) (layer F.SilkS) (width 0.12))
  (fp_text user %R (at -0.15 -0.16 180) (layer F.Fab)
    (effects (font (size 0.5 0.5) (thickness 0.075)))
  )
  (pad 1 smd rect (at 1.1 0.54 180) (size 1 0.8) (layers F.Cu F.Paste F.Mask))
  (pad 4 smd rect (at -1.4 0.54 180) (size 1 0.8) (layers F.Cu F.Paste F.Mask))
  (pad 3 smd rect (at -1.4 -0.86 180) (size 1 0.8) (layers F.Cu F.Paste F.Mask))
  (pad 2 smd rect (at 1.1 -0.86 180) (size 1 0.8) (layers F.Cu F.Paste F.Mask))
  (model ${KISYS3DMOD}/LED_SMD.3dshapes/LED_Cree-PLCC4_3.2x2.8mm_CCW.wrl
    (at (xyz 0 0 0))
    (scale (xyz 1 1 1))
    (rotate (xyz 0 0 0))
  )
)
